{
    "users": [
        {
            "username": "dwi_xjzqabet",
            "password": "secret_jfyadmix"
        },
        {
            "username": "dwi_rdsdvgou",
            "password": "secret_vfpcrnck"
        },
        {
            "username": "dwi_fgoornir",
            "password": "secret_ytpjppbb"
        },
        {
            "username": "dwi_unmbxmms",
            "password": "secret_bynkfoyp"
        },
        {
            "username": "dwi_szhrluli",
            "password": "secret_rdgwrgem"
        },
        {
            "username": "dwi_wtdwuouo",
            "password": "secret_igmiifoz"
        },
        {
            "username": "dwi_bdzlleqx",
            "password": "secret_opjpksyu"
        },
        {
            "username": "dwi_hbmcpcpp",
            "password": "secret_biykjhze"
        },
        {
            "username": "dwi_vzvlnqzm",
            "password": "secret_bgutmzog"
        }
    ]
}